{
  "images": [
    {
      "scale": "1x",
      "idiom": "iphone",
      "filename": "menu_notifications.png"
    },
    {
      "scale": "2x",
      "idiom": "iphone",
      "filename": "menu_notifications@2x.png"
    },
    {
      "scale": "3x",
      "idiom": "iphone",
      "filename": "menu_notifications@3x.png"
    },
    {
      "idiom": "iphone"
    }
  ],
  "properties": {
    "template-rendering-intent": ""
  },
  "info": {
    "version": 1,
    "author": ""
  }
}